module example

go 1.19

replace gitlab.com/fti_ticketshop_pub/gordp => ../

require github.com/googollee/go-socket.io v1.6.2

require (
	gitlab.com/fti_ticketshop_pub/gordp v0.0.0-00010101000000-000000000000
	gitlab.com/fti_ticketshop_pub/gxui v0.3.3
)

require (
	github.com/go-gl/gl v0.0.0-20211210172815-726fda9656d6 // indirect
	github.com/go-gl/glfw/v3.3/glfw v0.0.0-20220806181222-55e207c401ad // indirect
	github.com/gofrs/uuid v4.0.0+incompatible // indirect
	github.com/golang/freetype v0.0.0-20170609003504-e2365dfdc4a0 // indirect
	github.com/gomodule/redigo v1.8.4 // indirect
	github.com/gopherjs/gopherjs v1.17.2 // indirect
	github.com/gorilla/websocket v1.4.2 // indirect
	github.com/goxjs/gl v0.0.0-20210104184919-e3fafc6f8f2a // indirect
	github.com/goxjs/glfw v0.0.0-20220119044647-4bcee99381f2 // indirect
	github.com/huin/asn1ber v0.0.0-20120622192748-af09f62e6358 // indirect
	github.com/icodeface/tls v0.0.0-20190904083142-17aec93c60e5 // indirect
	github.com/lunixbochs/struc v0.0.0-20200707160740-784aaebc1d40 // indirect
	github.com/shirou/w32 v0.0.0-20160930032740-bb4de0191aa4 // indirect
	github.com/tomatome/win v0.3.1 // indirect
	golang.org/x/crypto v0.0.0-20220622213112-05595931fe9d // indirect
	golang.org/x/image v0.0.0-20220902085622-e7cb96979f69 // indirect
	honnef.co/go/js/dom v0.0.0-20221001195520-26252dedbe70 // indirect
)
