//# based on githxub.com/tomatome/grdp
module gitlab.com/fti_ticketshop_pub/gordp

go 1.18

require (
	github.com/huin/asn1ber v0.0.0-20120622192748-af09f62e6358
	github.com/icodeface/tls v0.0.0-20190904083142-17aec93c60e5
	github.com/lunixbochs/struc v0.0.0-20200707160740-784aaebc1d40
	github.com/shirou/w32 v0.0.0-20160930032740-bb4de0191aa4
	
	github.com/tomatome/win v0.3.1
	golang.org/x/crypto v0.0.0-20220622213112-05595931fe9d
)
